…
Get list of compaies by frequency

``` r
connection3 %>% 
  count(Company) %>% 
  arrange(-n)
```

    ## # A tibble: 262 × 2
    ##    Company                                                 n
    ##    <chr>                                               <int>
    ##  1 McGill University - Desautels Faculty of Management    33
    ##  2 McGill University                                      29
    ##  3 Scotiabank                                              8
    ##  4 Sustainalytics                                          7
    ##  5 Deloitte                                                6
    ##  6 Desautels Capital Management                            6
    ##  7 Air Transat                                             5
    ##  8 McGill University - Faculty of Science                  5
    ##  9 Rogers Communications                                   5
    ## 10 Amazon                                                  4
    ## # … with 252 more rows
…
