…
    ## Rows: 32906 Columns: 4
    ## -- Column specification --------------------------------------------------------
    ## Delimiter: ","
    ## chr  (1): application_number
    ## dbl  (2): ego_examiner_id, alter_examiner_id
    ## date (1): advice_date
    ## 
    ## i Use `spec()` to retrieve the full column specification for this data.
    ## i Specify the column types or set `show_col_types = FALSE` to quiet this message.

``` r
applications
```

    ## # A tibble: 2,018,477 x 16
    ##    application_number filing_date examiner_name_last examiner_name_first
    ##    <chr>              <date>      <chr>              <chr>              
    ##  1 08284457           2000-01-26  HOWARD             JACQUELINE         
    ##  2 08413193           2000-10-11  YILDIRIM           BEKIR              
    ##  3 08531853           2000-05-17  HAMILTON           CYNTHIA            
    ##  4 08637752           2001-07-20  MOSHER             MARY               
    ##  5 08682726           2000-04-10  BARR               MICHAEL            
    ##  6 08687412           2000-04-28  GRAY               LINDA              
    ##  7 08716371           2004-01-26  MCMILLIAN          KARA               
    ##  8 08765941           2000-06-23  FORD               VANESSA            
    ##  9 08776818           2000-02-04  STRZELECKA         TERESA             
    ## 10 08809677           2002-02-20  KIM                SUN                
    ## # ... with 2,018,467 more rows, and 12 more variables:
    ## #   examiner_name_middle <chr>, examiner_id <dbl>, examiner_art_unit <dbl>,
    ## #   uspc_class <chr>, uspc_subclass <chr>, patent_number <chr>,
    ## #   patent_issue_date <date>, abandon_date <date>, disposal_type <chr>,
    ## #   appl_status_code <dbl>, appl_status_date <chr>, tc <dbl>

``` r
edges
```

    ## # A tibble: 32,906 x 4
    ##    application_number advice_date ego_examiner_id alter_examiner_id
    ##    <chr>              <date>                <dbl>             <dbl>
    ##  1 09402488           2008-11-17            84356             66266
    ##  2 09402488           2008-11-17            84356             63519
    ##  3 09402488           2008-11-17            84356             98531
    ##  4 09445135           2008-08-21            92953             71313
    ##  5 09445135           2008-08-21            92953             93865
    ##  6 09445135           2008-08-21            92953             91818
    ##  7 09479304           2008-12-15            61767             69277
    ##  8 09479304           2008-12-15            61767             92446
    ##  9 09479304           2008-12-15            61767             66805
    ## 10 09479304           2008-12-15            61767             70919
    ## # ... with 32,896 more rows
…
